yapp/tb/dump.vcd
$date
	Tue Mar 11 16:54:46 2025
$end

$version
	Synopsys VCS version W-2024.09-SP1_Full64
$end

$timescale
	1ns
$end

$comment Csum: 1 2217875dbd8d779d $end


$scope module uvm_pkg $end
$var time 64 ! setting_offset $end
$var reg 32 " uvm_global_random_seed [31:0] $end
$var reg 32 # UVM_UNBOUNDED_CONNECTIONS [31:0] $end
$var reg 1 $ uvm_start_uvm_declarations $end
$var reg 32 % setting_verbosity [31:0] $end
$var reg 1 & is_verdi_set_verbosity_called $end
$var reg 1 ' is_uvm_factory_trace_checked $end
$var reg 1 ( is_verdi_trace_fac $end
$upscope $end


$scope module $unit $end
$upscope $end


$scope module yapp_pkg $end
$upscope $end


$scope module channel_pkg $end
$upscope $end


$scope module hbus_pkg $end
$upscope $end


$scope module clock_and_reset_pkg $end
$upscope $end


$scope module hw_top $end
$var reg 32 ) clock_period [31:0] $end
$var reg 1 * run_clock $end
$var reg 1 + clock $end
$var reg 1 , reset $end

$scope module in0 $end
$var wire 1 - reset $end
$var reg 1 . in_data_vld $end
$var reg 1 / in_suspend $end
$var reg 8 0 in_data [7:0] $end
$var reg 1 1 monstart $end
$var reg 1 2 drvstart $end
$var wire 1 3 clock $end
$upscope $end


$scope module cr_if $end
$var reg 1 4 clock_cycle_count_reached $end
$var reg 1 5 clock $end
$var reg 1 , reset $end
$var reg 1 * run_clock $end
$var reg 32 ) clock_period [31:0] $end
$var reg 32 6 reset_delay [31:0] $end
$var reg 32 7 clock_cycles_to_count [31:0] $end

$scope task start_clock $end
$var reg 32 8 input_clock_period [31:0] $end
$var reg 32 9 input_reset_delay [31:0] $end
$var reg 1 : input_run_clock $end
$upscope $end


$scope task count_clocks $end
$var reg 32 ; new_count [31:0] $end
$upscope $end


$scope task get_current_cycle_count $end
$var reg 32 < cycles_counted [31:0] $end
$upscope $end

$upscope $end


$scope module h_if $end
$var wire 1 - reset $end
$var reg 1 = hen $end
$var reg 1 > hwr_rd $end
$var reg 16 ? haddr [15:0] $end
$var wire 8 @ hdata_w [7:0] $end
$var reg 1 A monstart $end
$var reg 1 B masterstart $end
$var reg 1 C slavestart $end
$var wire 1 3 clock $end
$var reg 8 D hdata [7:0] $end
$var reg 1 E has_checks $end
$var reg 1 F has_coverage $end

$scope task master_send_to_dut $end
$var reg 16 G ha [15:0] $end
$var reg 1 H hrw [0:0] $end
$var reg 8 I hd [7:0] $end
$var reg 32 J wait_between_cycle [31:0] $end
$var reg 1 K random_delay $end
$upscope $end


$scope task collect_packet $end
$var reg 16 L ha [15:0] $end
$var reg 1 M hrw [0:0] $end
$var reg 8 N hd [7:0] $end
$upscope $end


$scope task master_reset $end
$upscope $end


$scope task slave_reset $end
$upscope $end


$scope task slave_send_to_dut $end
$var reg 16 O ha [15:0] $end
$var reg 1 P hrw [0:0] $end
$var reg 8 Q hd [7:0] $end
$var reg 8 R max_pktsize_reg [7:0] $end
$var reg 8 S router_enable_reg [7:0] $end
$upscope $end

$upscope $end


$scope module ch0_if $end
$var wire 1 3 clock $end
$var wire 1 - reset $end
$var reg 1 T data_vld $end
$var reg 1 U suspend $end
$var reg 8 V data [7:0] $end
$var reg 1 W pktstart $end
$upscope $end


$scope module ch1_if $end
$var wire 1 3 clock $end
$var wire 1 - reset $end
$var reg 1 X data_vld $end
$var reg 1 Y suspend $end
$var reg 8 Z data [7:0] $end
$var reg 1 [ pktstart $end
$upscope $end


$scope module ch2_if $end
$var wire 1 3 clock $end
$var wire 1 - reset $end
$var reg 1 \ data_vld $end
$var reg 1 ] suspend $end
$var reg 8 ^ data [7:0] $end
$var reg 1 _ pktstart $end
$upscope $end


$scope module clkgen $end
$var reg 1 + clock $end
$var wire 1 * run_clock $end
$var reg 32 ) clock_period [31:0] $end
$upscope $end


$scope module dut $end
$var wire 1 3 clock $end
$var wire 1 - reset $end
$var wire 1 ` error $end
$var wire 8 a in_data [7:0] $end
$var wire 1 b in_data_vld $end
$var wire 1 c in_suspend $end
$var wire 8 d data_0 [7:0] $end
$var reg 1 e data_vld_0 $end
$var wire 1 f suspend_0 $end
$var wire 8 g data_1 [7:0] $end
$var reg 1 h data_vld_1 $end
$var wire 1 i suspend_1 $end
$var wire 8 j data_2 [7:0] $end
$var reg 1 k data_vld_2 $end
$var wire 1 l suspend_2 $end
$var wire 16 m haddr [15:0] $end
$var wire 8 @ hdata [7:0] $end
$var wire 1 n hen $end
$var wire 1 o hwr_rd $end
$var wire 1 p full_0 $end
$var wire 1 q full_1 $end
$var wire 1 r full_2 $end
$var wire 1 s empty_0 $end
$var wire 1 t empty_1 $end
$var wire 1 u empty_2 $end
$var wire 1 v almost_empty_0 $end
$var wire 1 w almost_empty_1 $end
$var wire 1 x almost_empty_2 $end
$var wire 1 y fifo_empty $end
$var wire 1 z fifo_empty0 $end
$var wire 1 { fifo_empty1 $end
$var wire 1 | fifo_empty2 $end
$var wire 1 } hold_0 $end
$var wire 1 ~ hold_1 $end
$var wire 1 "! hold_2 $end
$var wire 1 "" hold $end
$var wire 3 "# write_enb [2:0] $end
$var wire 2 "$ addr [1:0] $end
$var wire 8 "% router_enable [7:0] $end
$var wire 6 "& max_pkt_size [5:0] $end
$var wire 8 "' chan_data [7:0] $end
$var wire 8 "( parity_err_cnt [7:0] $end
$var wire 8 ") len_err_cnt [7:0] $end
$var wire 8 "* ill_addr_cnt [7:0] $end
$var wire 8 "+ addr0_cnt [7:0] $end
$var wire 8 ", addr1_cnt [7:0] $end
$var wire 8 "- addr2_cnt [7:0] $end
$var wire 1 ". resets [4] $end
$var wire 1 "/ resets [3] $end
$var wire 1 "0 resets [2] $end
$var wire 1 "1 resets [1] $end
$var wire 1 "2 resets [0] $end
$var wire 4 "3 intr_stat [3:0] $end
$var wire 4 "4 intr_ien [3:0] $end
$var wire 4 "5 intr_clr [3:0] $end
$var wire 7 "6 pkt_addr [6:0] $end
$var wire 8 "7 pkt_data [7:0] $end
$var wire 8 "8 parity_out [7:0] $end
$var wire 1 "9 parity_done $end
$var wire 1 ": pkt_start $end
$var wire 6 "; last_pkt_size [5:0] $end

$scope module reg_file $end
$var wire 1 3 clock $end
$var wire 1 - reset $end
$var wire 1 o wr_rd $end
$var wire 1 n en $end
$var wire 16 m addr [15:0] $end
$var wire 8 @ data [7:0] $end
$var wire 8 "( parity_err_cnt [7:0] $end
$var wire 8 ") len_err_cnt [7:0] $end
$var wire 8 "* ill_addr_cnt [7:0] $end
$var wire 8 "+ addr0_cnt [7:0] $end
$var wire 8 ", addr1_cnt [7:0] $end
$var wire 8 "- addr2_cnt [7:0] $end
$var wire 4 "3 int_stat [3:0] $end
$var wire 7 "6 pkt_addr [6:0] $end
$var wire 8 "7 pkt_data [7:0] $end
$var wire 8 "8 parity [7:0] $end
$var wire 6 "; last_pkt_size [5:0] $end
$var wire 1 "9 parity_done $end
$var wire 1 ": pkt_start $end
$var wire 4 "4 int_ien_reg [3:0] $end
$var wire 4 "5 int_clr [3:0] $end
$var wire 1 "< rst_reg [4] $end
$var wire 1 "= rst_reg [3] $end
$var wire 1 "> rst_reg [2] $end
$var wire 1 "? rst_reg [1] $end
$var wire 1 "@ rst_reg [0] $end
$var wire 6 "& max_pkt_len [5:0] $end
$var reg 8 "A reset_reg [7:0] $end
$var reg 1 "@ rst_yapp_fld $end
$var reg 1 "? rst_err_cnts_fld $end
$var reg 1 "> rst_addr_cnts_fld $end
$var reg 1 "= rst_ien_stat_fld $end
$var reg 1 "< rst_ram_fld $end
$var reg 1 "B rst_prot_err_fld $end
$var reg 8 "C ctrl_reg [7:0] $end
$var reg 6 "& pkt_len_fld [5:0] $end
$var reg 1 "D router_en_fld $end
$var reg 1 "E parity_err_cnt_en_fld $end
$var reg 1 "F len_err_cnt_en_fld $end
$var reg 1 "G addr0_cnt_en_fld $end
$var reg 1 "H addr1_cnt_en_fld $end
$var reg 1 "I addr2_cnt_en_fld $end
$var reg 1 "J illegal_addr_cnt_en_fld $end
$var reg 3 "K ien_reg [2:0] $end
$var reg 1 "L illegal_pkt_addr_ien_fld $end
$var reg 1 "M ovrsized_pkt_ien_fld $end
$var reg 1 "N parity_ien_fld $end
$var reg 3 "O int_reg [2:0] $end
$var reg 1 "P illegal_pkt_addr_int_fld $end
$var reg 1 "Q ovrsized_pkt_int_fld $end
$var reg 1 "R parity_int_fld $end
$var reg 8 "S parity_err_cnt_reg [7:0] $end
$var reg 8 "T max_pkt_len_err_cnt_reg [7:0] $end
$var reg 8 "U illegal_addr_cnt_reg [7:0] $end
$var reg 8 "V addr0_cnt_reg [7:0] $end
$var reg 8 "W addr1_cnt_reg [7:0] $end
$var reg 8 "X addr2_cnt_reg [7:0] $end
$var reg 8 "Y last_pkt_size_reg [7:0] $end
$var reg 8 "Z int_data [7:0] $end
$var reg 8 "[ int_en_reg [7:0] $end
$var reg 4 "5 int_clr_int [3:0] $end
$var reg 7 "\ pkt_addr_int [6:0] $end
$var reg 8 "] pkt_data_int [7:0] $end

$scope task reset_mem $end
$var integer 32 "^ i $end
$upscope $end

$var reg 8 "% en_reg [7:0] $end
$upscope $end


$scope module in_port $end
$var wire 1 3 clock $end
$var wire 1 - reset $end
$var wire 1 "" hold $end
$var wire 1 y fifo_empty $end
$var reg 1 "_ error $end
$var wire 1 ". resets [4] $end
$var wire 1 "/ resets [3] $end
$var wire 1 "0 resets [2] $end
$var wire 1 "1 resets [1] $end
$var wire 1 "2 resets [0] $end
$var wire 6 "& max_pkt_size [5:0] $end
$var wire 4 "5 intr_clr [3:0] $end
$var wire 6 "; last_pkt_size [5:0] $end
$var wire 8 "( parity_err_cnt [7:0] $end
$var wire 8 ") len_err_cnt [7:0] $end
$var wire 8 "* ill_addr_cnt [7:0] $end
$var wire 4 "3 intr_stat [3:0] $end
$var wire 4 "4 intr_ien [3:0] $end
$var wire 8 "+ addr0_cnt [7:0] $end
$var wire 8 ", addr1_cnt [7:0] $end
$var wire 8 "- addr2_cnt [7:0] $end
$var wire 7 "6 pkt_addr [6:0] $end
$var wire 8 "7 pkt_data [7:0] $end
$var wire 8 "8 parity_out [7:0] $end
$var wire 1 "9 parity_done $end
$var wire 1 ": pkt_start $end
$var wire 8 a in_data [7:0] $end
$var wire 1 b in_data_vld $end
$var wire 1 c in_suspend $end
$var wire 2 "$ addr [1:0] $end
$var wire 8 "' chan_data [7:0] $end
$var wire 3 "# write_enb [2:0] $end
$var reg 3 "` write_enb_r [2:0] $end
$var reg 1 "a fsm_write_enb $end
$var reg 2 "b state_r [1:0] $end
$var reg 2 "c state [1:0] $end
$var reg 8 "d parity [7:0] $end
$var reg 1 "e sus_data_in $end
$var reg 2 "f dest_chan_r [1:0] $end
$var reg 8 "( parity_err_cnt_int [7:0] $end
$var reg 8 ") len_err_cnt_int [7:0] $end
$var reg 8 "* ill_addr_cnt_int [7:0] $end
$var reg 8 "+ addr0_cnt_int [7:0] $end
$var reg 8 ", addr1_cnt_int [7:0] $end
$var reg 8 "- addr2_cnt_int [7:0] $end
$var reg 4 "3 intr_stat_int [3:0] $end
$var reg 7 "6 pkt_addr_int [6:0] $end
$var reg 8 "7 pkt_data_int [7:0] $end
$var reg 1 "9 parity_done_int $end
$var reg 8 "8 parity_out_int [7:0] $end
$var reg 1 ": pkt_start_int $end
$var reg 1 "g illegal_addr_int $end
$var reg 8 "h last_pkt_size_int [7:0] $end
$var reg 1 "i parity_intr_int $end
$var reg 1 "j illegal_pkt_addr_intr_int $end
$var reg 1 "k ovrsized_pkt_intr_int $end
$var wire 2 "$ dest_chan [1:0] $end
$var wire 1 "l chan0 $end
$var wire 1 "m chan1 $end
$var wire 1 "n chan2 $end
$var wire 1 "o header_valid $end
$var reg 8 "% router_enable [7:0] $end

$scope begin fsm_state $end
$upscope $end


$scope begin parity_calc $end
$upscope $end

$upscope $end


$scope module queue_0 $end
$var wire 1 3 clock $end
$var wire 1 - reset $end
$var wire 1 "p write_enb $end
$var wire 1 "q read_enb $end
$var wire 8 "' in_data [7:0] $end
$var wire 1 ". resets [4] $end
$var wire 1 "/ resets [3] $end
$var wire 1 "0 resets [2] $end
$var wire 1 "1 resets [1] $end
$var wire 1 "2 resets [0] $end
$var reg 8 "r data_out [7:0] $end
$var wire 1 s empty $end
$var wire 1 v almost_empty $end
$var wire 1 p full $end
$var reg 1 "s tmp_empty $end
$var reg 1 "t tmp_full $end
$var reg 4 "u write_ptr [3:0] $end
$var reg 4 "v read_ptr [3:0] $end

$scope begin fifo_core $end
$upscope $end

$upscope $end


$scope module queue_1 $end
$var wire 1 3 clock $end
$var wire 1 - reset $end
$var wire 1 "w write_enb $end
$var wire 1 "x read_enb $end
$var wire 8 "' in_data [7:0] $end
$var wire 1 ". resets [4] $end
$var wire 1 "/ resets [3] $end
$var wire 1 "0 resets [2] $end
$var wire 1 "1 resets [1] $end
$var wire 1 "2 resets [0] $end
$var reg 8 "y data_out [7:0] $end
$var wire 1 t empty $end
$var wire 1 w almost_empty $end
$var wire 1 q full $end
$var reg 1 "z tmp_empty $end
$var reg 1 "{ tmp_full $end
$var reg 4 "| write_ptr [3:0] $end
$var reg 4 "} read_ptr [3:0] $end

$scope begin fifo_core $end
$upscope $end

$upscope $end


$scope module queue_2 $end
$var wire 1 3 clock $end
$var wire 1 - reset $end
$var wire 1 "~ write_enb $end
$var wire 1 #! read_enb $end
$var wire 8 "' in_data [7:0] $end
$var wire 1 ". resets [4] $end
$var wire 1 "/ resets [3] $end
$var wire 1 "0 resets [2] $end
$var wire 1 "1 resets [1] $end
$var wire 1 "2 resets [0] $end
$var reg 8 #" data_out [7:0] $end
$var wire 1 u empty $end
$var wire 1 x almost_empty $end
$var wire 1 r full $end
$var reg 1 ## tmp_empty $end
$var reg 1 #$ tmp_full $end
$var reg 4 #% write_ptr [3:0] $end
$var reg 4 #& read_ptr [3:0] $end

$scope begin fifo_core $end
$upscope $end

$upscope $end

$upscope $end

$upscope $end


$scope module top $end

$scope begin unnamed$$_vcs_2 $end
$upscope $end

$upscope $end

$enddefinitions $end

#0
$dumpvars
1'
0&
0(
1$
bxxxxxxxxxxxxxxxxxxxxxxxxxxxxxxxxxxxxxxxxxxxxxxxxxxxxxxxxxxxxxxxx !
b11111111111111111111111111111111 #
b00000000000000000000000000000000 %
b11101110111000110000001101101111 "
0+
b00000000000000000000000000001010 )
bxxxxxxxx 0
1:
b00000000000000000000000000000000 7
b00000000000000000000000000000101 6
b00000000000000000000000000000000 ;
b00000000000000000000000000000000 <
b00000000000000000000000000001010 8
b00000000000000000000000000000101 9
0M
0H
0K
0P
bxxxxxxxx D
bxxxxxxxxxxxxxxxx ?
b0000000000000000 L
b00000000 N
b0000000000000000 G
b00000000 I
b00000000000000000000000000000000 J
b0000000000000000 O
b00000000 Q
b00000000 R
b00000000 S
bxxxxxxxx V
bxxxxxxxx Z
bxxxxxxxx ^
x"G
x"H
x"I
xe
xh
xk
xy
x"a
x""
x"J
x"g
x"L
x"P
x"j
x"_
x"F
x"M
x"Q
x"k
x"9
x"E
x"N
x"R
x"i
x":
x"D
x">
x"?
x"=
x"B
x"<
x"@
x"e
x"o
x"l
x}
x"m
x~
x"n
x"!
xz
x{
x|
bxxxxxxxx "+
bxxxxxxxx "V
bxxxxxxxx ",
bxxxxxxxx "W
bxxxxxxxx "-
bxxxxxxxx "X
bxxxxxxxx "C
bxx "$
bxx "f
bxxx "K
bxxxxxxxx "*
bxxxxxxxx "U
bxxxx "5
bxxxxxxxx "Z
bxxxxxxxx "[
bxxx "O
b0xxx "4
bxxxx "3
bxxxxxxxx "h
b00xxxxxx "Y
bxxxxxxxx ")
bxxxxxxxx "T
bxxxxxxxx "d
bxxxxxxxx "(
bxxxxxxxx "S
bxxxxxxxx "8
bxxxxxxx "6
bxxxxxxxx "7
bxxxxxx "&
bxxxxxxxxxxxxxxxxxxxxxxxxxxxxxxxx "^
b000xxxxx "A
bxx "c
bxx "b
bxxxxxxxx "%
bxxxxxx ";
x"s
x"t
bxxxxxxxx "r
bxxxx "v
bxxxx "u
x"z
x"{
bxxxxxxxx "y
bxxxx "}
bxxxx "|
x##
x#$
bxxxxxxxx #"
bxxxx #&
bxxxx #%
bxxx "`
bxxxxxxxx "]
bxxxxxxx "\
bxxxxxxxx a
bxxxxxxxx d
bxxxxxxxx g
bxxxxxxxx j
bxxxxxxxxxxxxxxxx m
x`
bxxx "#
x"p
x"w
x"~
bxxxxxxxx "'
x".
x"/
x"0
x"1
x"2
xs
xp
xt
xq
xu
xr
xv
xw
xx
xb
xc
xf
xi
xl
xn
xo
0,
1*
05
0-
03
02
x.
x/
01
04
1E
1F
x=
x>
0B
0A
0C
bxxxxxxxx @
xT
0W
xU
xX
0[
xY
x\
0_
x]
x"q
x"x
x#!
$end
bxxxx0xxx "%
#5
1+
13
15
b00000000000000000000000000000100 6
1,
1-
b00000000000000000000000001000010 "^
1U
1f
0"q
1Y
1i
0"x
1]
1l
0#!
0e
0T
0h
0X
0k
0\
b00000000 "Z
b111111 "&
b00111111 "C
1"D
bxxxx0xx1 "%
0"E
bxxxx0x01 "%
0"F
bxxxx0001 "%
0"G
bxxx00001 "%
0"H
bxx000001 "%
0"I
bx0000001 "%
0"J
b00000001 "%
b000 "K
0"L
0"M
0"N
0"P
0"Q
0"R
b0000 "5
b00000000 "S
b00000000 "T
b00000000 "U
b00000000 "V
b00000000 "W
b00000000 "X
0"<
0".
0"=
0"/
0">
0"0
0"?
0"1
0"B
b00 "b
b00 "f
b00000000 "+
b00000000 ",
b00000000 "-
b00000000 ")
b00000000 "*
b00000000 "(
b0000 "3
b0000000 "6
b00000000 "7
0"g
b00000000 "h
b000000 ";
0"i
0"j
0"k
b00000000 "d
0"9
0"_
0`
0"t
0p
0}
1"s
1s
1z
b0000 "u
b0000 "v
0"{
0q
0~
1"z
1t
1{
b0000 "|
b0000 "}
0#$
0r
0"!
1##
1u
1|
b0000 #%
b0000 #&
0.
0b
0"o
bzzzzzzzz 0
bzzzzzzzz a
bzzzzzzzz "'
b00 "c
0"e
0c
0/
0"a
b000 "#
0"p
0"w
0"~
b0000 "4
0v
0w
0""
1y
0x
b00 "$
1"l
0"m
0"n
0":
#10
0+
03
05
b00000000 "Y
b0000000x "A
#15
1+
13
15
b00000000000000000000000000000011 6
#20
0+
03
05
#25
1+
13
15
b00000000000000000000000000000010 6
#30
0+
03
05
#35
1+
13
15
b00000000000000000000000000000001 6
#40
0+
03
05
#45
1+
13
15
b00000000000000000000000000000000 6
#50
0+
03
05
#55
1+
13
15
0,
0-
#60
0+
03
05
#65
1+
13
15
#70
0+
03
05
#75
1+
13
15
#80
0+
03
05
#85
1+
13
15
#90
0+
03
05
#95
1+
13
15
#100
0+
03
05
#105
1+
13
15
#110
0+
03
05
#115
1+
13
15
#120
0+
03
05
#125
1+
13
15
#130
0+
03
05
#135
1+
13
15
#140
0+
03
05
#145
1+
13
15
#150
0+
03
05
#155
1+
13
15
#160
0+
03
05
#165
1+
13
15
#170
0+
03
05
#175
1+
13
15
#180
0+
03
05
#185
1+
13
15
#190
0+
03
05
12
1.
1b
1"o
b00000101 0
b00000101 a
b00000101 "'
b01 "c
1"a
b001 "#
1"p
b01 "$
0"l
1"m
b010 "#
0"p
1"w
#195
1+
13
15
11
#200
0+
03
05
b01 "b
0"o
b01 "f
b00000101 "d
b00000101 "7
b00000000 "8
b00000001 "h
b000001 ";
1":
0"z
0t
0{
b0001 "|
b11111101 0
b11111101 a
b11111101 "'
0"a
b000 "#
0"w
1"a
b010 "#
1"w
b01 "$
0y
0"a
b000 "#
0"w
1"a
b010 "#
1"w
#205
1+
13
15
1h
1X
b00000101 "y
b00000101 g
b00000101 Z
#210
0+
03
05
b00000001 "Y
b11111000 "d
b11111101 "7
b00000101 "8
b0000001 "6
b0010 "|
0.
0b
b11111000 0
b11111000 a
b11111000 "'
0"a
b000 "#
0"w
b00 "c
1"a
b010 "#
1"w
#215
1+
13
15
01
#220
0+
03
05
02
b00 "b
b00000000 "d
b0000000 "6
b00000000 "7
0":
b0011 "|
bzzzzzzzz 0
bzzzzzzzz a
bzzzzzzzz "'
0"a
b000 "#
0"w
#225
1+
13
15
#230
0+
03
05
0Y
0i
1"x
#235
1+
13
15
1[
#240
0+
03
05
b0001 "}
#245
1+
13
15
b11111101 "y
b11111101 g
b11111101 Z
#250
0+
03
05
b0010 "}
1w
#255
1+
13
15
0h
0X
b11111000 "y
b11111000 g
b11111000 Z
#260
0+
03
05
b0011 "}
1"z
1t
1{
1Y
1i
0"x
0w
1y
#265
1+
13
15
0[
bxxxxxxxx "y
bxxxxxxxx g
bxxxxxxxx Z
#270
0+
03
05
#275
1+
13
15
#280
0+
03
05
#285
1+
13
15
#290
0+
03
05
#295
1+
13
15
#300
0+
03
05
#305
1+
13
15
#310
0+
03
05
#315
1+
13
15
#320
0+
03
05
12
1.
1b
1"o
b00000110 0
b00000110 a
b00000110 "'
b01 "c
1"a
b010 "#
1"w
b10 "$
0"m
1"n
b100 "#
0"w
1"~
#325
1+
13
15
11
#330
0+
03
05
b01 "b
0"o
b10 "f
b00000110 "d
b00000110 "7
b00000000 "8
1":
0##
0u
0|
b0001 #%
b01101110 0
b01101110 a
b01101110 "'
0"a
b000 "#
0"~
1"a
b100 "#
1"~
b10 "$
0y
0"a
b000 "#
0"~
1"a
b100 "#
1"~
#335
1+
13
15
1k
1\
b00000110 #"
b00000110 j
b00000110 ^
#340
0+
03
05
b01101000 "d
b01101110 "7
b00000110 "8
b0000001 "6
b0010 #%
0.
0b
b01101000 0
b01101000 a
b01101000 "'
0"a
b000 "#
0"~
b00 "c
1"a
b100 "#
1"~
#345
1+
13
15
01
#350
0+
03
05
02
b00 "b
b00000000 "d
b0000000 "6
b00000000 "7
0":
b0011 #%
bzzzzzzzz 0
bzzzzzzzz a
bzzzzzzzz "'
0"a
b000 "#
0"~
#355
1+
13
15
#360
0+
03
05
#365
1+
13
15
#370
0+
03
05
0]
0l
1#!
#375
1+
13
15
1_
#380
0+
03
05
b0001 #&
#385
1+
13
15
b01101110 #"
b01101110 j
b01101110 ^
#390
0+
03
05
b0010 #&
1x
#395
1+
13
15
0k
0\
b01101000 #"
b01101000 j
b01101000 ^
#400
0+
03
05
b0011 #&
1##
1u
1|
1]
1l
0#!
0x
1y
#405
1+
13
15
0_
bxxxxxxxx #"
bxxxxxxxx j
bxxxxxxxx ^
#410
0+
03
05
#415
1+
13
15
#420
0+
03
05
#425
1+
13
15
#430
0+
03
05
#435
1+
13
15
#440
0+
03
05
#445
1+
13
15
#450
0+
03
05
#455
1+
13
15
#460
0+
03
05
#465
1+
13
15
#470
0+
03
05
#475
1+
13
15
#480
0+
03
05
#485
1+
13
15
#490
0+
03
05
#495
1+
13
15
#500
0+
03
05
#505
1+
13
15
#510
0+
03
05
#515
1+
13
15
#520
0+
03
05
12
1.
1b
1"o
b00000111 0
b00000111 a
b00000111 "'
b10 "c
b11 "$
0"n
#525
1+
13
15
11
#530
0+
03
05
b10 "b
0"o
b11 "f
b00000111 "d
b00000111 "7
b00000000 "8
1":
b11011100 0
b11011100 a
b11011100 "'
b11 "$
#535
1+
13
15
#540
0+
03
05
b11011011 "d
b11011100 "7
b00000111 "8
b0000001 "6
0.
0b
b11011011 0
b11011011 a
b11011011 "'
b00 "c
#545
1+
13
15
01
#550
0+
03
05
02
b00 "b
b00000000 "d
b0000000 "6
b00000000 "7
0":
bzzzzzzzz 0
bzzzzzzzz a
bzzzzzzzz "'
#555
1+
13
15
#560
0+
03
05
#565
1+
13
15
#570
0+
03
05
#575
1+
13
15
#580
0+
03
05
#585
1+
13
15
#590
0+
03
05
12
1.
1b
1"o
b00001001 0
b00001001 a
b00001001 "'
b01 "c
1"a
b01 "$
1"m
b010 "#
1"w
#595
1+
13
15
11
#600
0+
03
05
b01 "b
0"o
b01 "f
b00001001 "d
b00001001 "7
b00000000 "8
b00000010 "h
b000010 ";
1":
0"z
0t
0{
b0100 "|
b10011100 0
b10011100 a
b10011100 "'
0"a
b000 "#
0"w
1"a
b010 "#
1"w
b01 "$
0y
0"a
b000 "#
0"w
1"a
b010 "#
1"w
#605
1+
13
15
1h
1X
b00001001 "y
b00001001 g
b00001001 Z
#610
0+
03
05
b00000010 "Y
b10010101 "d
b10011100 "7
b00001001 "8
b0000001 "6
b0101 "|
b10011101 0
b10011101 a
b10011101 "'
0"a
b000 "#
0"w
1"a
b010 "#
1"w
#615
1+
13
15
#620
0+
03
05
b00001000 "d
b10011101 "7
b10010101 "8
b0000010 "6
b0110 "|
0.
0b
b00001000 0
b00001000 a
b00001000 "'
0"a
b000 "#
0"w
b00 "c
1"a
b010 "#
1"w
#625
1+
13
15
01
#630
0+
03
05
02
b00 "b
b00000000 "d
b0000000 "6
b00000000 "7
0":
b0111 "|
bzzzzzzzz 0
bzzzzzzzz a
bzzzzzzzz "'
0"a
b000 "#
0"w
#635
1+
13
15
#640
0+
03
05
#645
1+
13
15
#650
0+
03
05
#655
1+
13
15
#660
0+
03
05
12
1.
1b
1"o
b00001010 0
b00001010 a
b00001010 "'
1"e
1c
1/
b10 "$
1{
0"m
1"n
1y
0"e
0c
0/
b01 "c
1"a
b100 "#
1"~
#665
1+
13
15
11
#670
0+
03
05
b01 "b
0"o
b10 "f
b00001010 "d
b00001010 "7
b00000000 "8
1":
0##
0u
0|
b0100 #%
b01111111 0
b01111111 a
b01111111 "'
0Y
0i
1"x
0"a
b000 "#
0"~
1"a
b100 "#
1"~
b10 "$
0y
0"a
b000 "#
0"~
1"a
b100 "#
1"~
#675
1+
13
15
1[
1k
1\
b00001010 #"
b00001010 j
b00001010 ^
#680
0+
03
05
b01110101 "d
b01111111 "7
b00001010 "8
b0000001 "6
b0100 "}
b0101 #%
b00101000 0
b00101000 a
b00101000 "'
0"a
b000 "#
0"~
1"a
b100 "#
1"~
#685
1+
13
15
b10011100 "y
b10011100 g
b10011100 Z
#690
0+
03
05
b01011101 "d
b00101000 "7
b01110101 "8
b0000010 "6
b0101 "}
b0110 #%
0.
0b
b01011101 0
b01011101 a
b01011101 "'
0"a
b000 "#
0"~
b00 "c
1"a
b100 "#
1"~
#695
1+
13
15
01
b10011101 "y
b10011101 g
b10011101 Z
#700
0+
03
05
02
b00 "b
b00000000 "d
b0000000 "6
b00000000 "7
0":
b0110 "}
b0111 #%
bzzzzzzzz 0
bzzzzzzzz a
bzzzzzzzz "'
0]
0l
1#!
0"a
b000 "#
0"~
1w
#705
1+
13
15
1_
0h
0X
b00001000 "y
b00001000 g
b00001000 Z
#710
0+
03
05
b0111 "}
1"z
1t
b0100 #&
1Y
1i
0"x
0w
#715
1+
13
15
0[
bxxxxxxxx "y
bxxxxxxxx g
bxxxxxxxx Z
b01111111 #"
b01111111 j
b01111111 ^
#720
0+
03
05
b0101 #&
#725
1+
13
15
b00101000 #"
b00101000 j
b00101000 ^
#730
0+
03
05
b0110 #&
1x
#735
1+
13
15
0k
0\
b01011101 #"
b01011101 j
b01011101 ^
#740
0+
03
05
b0111 #&
1##
1u
1|
1]
1l
0#!
0x
1y
#745
1+
13
15
0_
bxxxxxxxx #"
bxxxxxxxx j
bxxxxxxxx ^
#750
0+
03
05
#755
1+
13
15
#760
0+
03
05
#765
1+
13
15
#770
0+
03
05
#775
1+
13
15
#780
0+
03
05
#785
1+
13
15
#790
0+
03
05
#795
1+
13
15
#800
0+
03
05
#805
1+
13
15
#810
0+
03
05
#815
1+
13
15
#820
0+
03
05
#825
1+
13
15
#830
0+
03
05
#835
1+
13
15
#840
0+
03
05
12
1.
1b
1"o
b00001011 0
b00001011 a
b00001011 "'
b10 "c
b11 "$
0"n
#845
1+
13
15
11
#850
0+
03
05
b10 "b
0"o
b11 "f
b00001011 "d
b00001011 "7
b00000000 "8
1":
b00011001 0
b00011001 a
b00011001 "'
b11 "$
#855
1+
13
15
#860
0+
03
05
b00010010 "d
b00011001 "7
b00001011 "8
b0000001 "6
b01010011 0
b01010011 a
b01010011 "'
#865
1+
13
15
#870
0+
03
05
b01000001 "d
b01010011 "7
b00010010 "8
b0000010 "6
0.
0b
b01000001 0
b01000001 a
b01000001 "'
b00 "c
#875
1+
13
15
01
#880
0+
03
05
02
b00 "b
b00000000 "d
b0000000 "6
b00000000 "7
0":
bzzzzzzzz 0
bzzzzzzzz a
bzzzzzzzz "'
#885
1+
13
15
#890
0+
03
05
#895
1+
13
15
#900
0+
03
05
#905
1+
13
15
#910
0+
03
05
#915
1+
13
15
#920
0+
03
05
12
1.
1b
1"o
b00001101 0
b00001101 a
b00001101 "'
b01 "c
1"a
b01 "$
1"m
b010 "#
1"w
#925
1+
13
15
11
#930
0+
03
05
b01 "b
0"o
b01 "f
b00001101 "d
b00001101 "7
b00000000 "8
b00000011 "h
b000011 ";
1":
0"z
0t
0{
b1000 "|
b10011000 0
b10011000 a
b10011000 "'
0"a
b000 "#
0"w
1"a
b010 "#
1"w
b01 "$
0y
0"a
b000 "#
0"w
1"a
b010 "#
1"w
#935
1+
13
15
1h
1X
b00001101 "y
b00001101 g
b00001101 Z
#940
0+
03
05
b00000011 "Y
b10010101 "d
b10011000 "7
b00001101 "8
b0000001 "6
b1001 "|
b10011001 0
b10011001 a
b10011001 "'
0"a
b000 "#
0"w
1"a
b010 "#
1"w
#945
1+
13
15
#950
0+
03
05
b00001100 "d
b10011001 "7
b10010101 "8
b0000010 "6
b1010 "|
b10000000 0
b10000000 a
b10000000 "'
0"a
b000 "#
0"w
1"a
b010 "#
1"w
#955
1+
13
15
#960
0+
03
05
b10001100 "d
b10000000 "7
b00001100 "8
b0000011 "6
b1011 "|
0.
0b
b10001100 0
b10001100 a
b10001100 "'
0"a
b000 "#
0"w
b00 "c
1"a
b010 "#
1"w
#965
1+
13
15
01
